{
  "name": "person",
  "plural": "people",
  "base": "User",
  "idInjection": true,
  "options": {
    "validateUpsert": true
  },
  "properties": {},
  "validations": [],
  "relations": {
    "created-bugs": {
      "type": "hasMany",
      "model": "bug",
      "foreignKey": "creatorId"
    },
    "responsibilities": {
      "type": "hasMany",
      "model": "bug",
      "foreignKey": "responsableId"
    }
  },
  "acls": [
    {
      "accessType": "*",
      "principalType": "ROLE",
      "principalId": "$unauthenticated",
      "permission": "DENY"
    },
    {
      "accessType": "*",
      "principalType": "ROLE",
      "principalId": "$authenticated",
      "permission": "ALLOW"
    }
  ],
  "methods": {}
}
